\contentsline {part}{I\hspace {1em}Docker}{1}{part.1}
\contentsline {chapter}{\numberline {1}Installation}{3}{chapter.1}
\contentsline {xpart}{Docker}{3}{part.1}
\contentsline {chapter}{\numberline {2}File Structure}{5}{chapter.2}
\contentsline {chapter}{\numberline {3}Command Line Basics}{7}{chapter.3}
\contentsline {section}{\numberline {3.1}pull}{7}{section.3.1}
\contentsline {section}{\numberline {3.2}run}{7}{section.3.2}
\contentsline {section}{\numberline {3.3}start}{8}{section.3.3}
\contentsline {section}{\numberline {3.4}stop}{8}{section.3.4}
\contentsline {section}{\numberline {3.5}attach}{8}{section.3.5}
\contentsline {section}{\numberline {3.6}rm}{8}{section.3.6}
\contentsline {section}{\numberline {3.7}kill}{9}{section.3.7}
\contentsline {section}{\numberline {3.8}ps}{9}{section.3.8}
\contentsline {chapter}{\numberline {4}Images}{11}{chapter.4}
\contentsline {section}{\numberline {4.1}What is an Image}{11}{section.4.1}
\contentsline {section}{\numberline {4.2}Pulling Images}{11}{section.4.2}
\contentsline {section}{\numberline {4.3}Base Images}{11}{section.4.3}
\contentsline {section}{\numberline {4.4}Dockerfile}{11}{section.4.4}
\contentsline {chapter}{\numberline {5}Running Containers}{13}{chapter.5}
\contentsline {section}{\numberline {5.1}Detached}{13}{section.5.1}
\contentsline {section}{\numberline {5.2}Interactive, TTY}{13}{section.5.2}
\contentsline {chapter}{\numberline {6}Container Management}{15}{chapter.6}
\contentsline {section}{\numberline {6.1}Starting Containers}{15}{section.6.1}
\contentsline {section}{\numberline {6.2}Stopping Containers}{15}{section.6.2}
\contentsline {section}{\numberline {6.3}Removing Containers}{15}{section.6.3}
\contentsline {section}{\numberline {6.4}Attaching to Containers}{15}{section.6.4}
\contentsline {chapter}{\numberline {7}Exposing Ports}{17}{chapter.7}
\contentsline {section}{\numberline {7.1}Mapping Ports}{17}{section.7.1}
\contentsline {section}{\numberline {7.2}Running Containers}{17}{section.7.2}
\contentsline {chapter}{\numberline {8}Linking Containers}{19}{chapter.8}
\contentsline {chapter}{\numberline {9}Volumes}{21}{chapter.9}
\contentsline {section}{\numberline {9.1}SELinux}{21}{section.9.1}
\contentsline {chapter}{\numberline {10}Labels}{23}{chapter.10}
\contentsline {chapter}{\numberline {11}Remote API}{25}{chapter.11}
\contentsline {chapter}{\numberline {12}Resource Allocation}{27}{chapter.12}
\contentsline {section}{\numberline {12.1}CPU Share}{27}{section.12.1}
\contentsline {section}{\numberline {12.2}Memory}{27}{section.12.2}
\contentsline {section}{\numberline {12.3}Disk Space}{27}{section.12.3}
\contentsline {chapter}{\numberline {13}Docker Daemon}{29}{chapter.13}
\contentsline {section}{\numberline {13.1}IP Address Allocation}{29}{section.13.1}
\contentsline {chapter}{\numberline {14}Backup}{31}{chapter.14}
\contentsline {section}{\numberline {14.1}Containers}{31}{section.14.1}
\contentsline {section}{\numberline {14.2}Images}{31}{section.14.2}
\contentsline {section}{\numberline {14.3}Docker Configuration}{31}{section.14.3}
\contentsline {chapter}{\numberline {15}Restoring Backups}{33}{chapter.15}
\contentsline {section}{\numberline {15.1}Containers}{33}{section.15.1}
\contentsline {section}{\numberline {15.2}Images}{33}{section.15.2}
\contentsline {section}{\numberline {15.3}Docker Configuration}{33}{section.15.3}
\contentsline {chapter}{\numberline {16}Security}{35}{chapter.16}
\contentsline {section}{\numberline {16.1}docker Group}{35}{section.16.1}
\contentsline {section}{\numberline {16.2}SELinux}{35}{section.16.2}
\contentsline {section}{\numberline {16.3}Privileged}{35}{section.16.3}
\contentsline {part}{II\hspace {1em}Docker Registry}{37}{part.2}
\contentsline {chapter}{\numberline {17}Hosting}{39}{chapter.17}
\contentsline {section}{\numberline {17.1}Self Hosting}{39}{section.17.1}
\contentsline {section}{\numberline {17.2}Private Repositories}{39}{section.17.2}
\contentsline {xpart}{Docker Registry}{39}{part.2}
\contentsline {part}{III\hspace {1em}Docker Hub}{41}{part.3}
\contentsline {xpart}{Docker Hub}{43}{part.3}
\contentsline {part}{IV\hspace {1em}Docker Swarm}{43}{part.4}
\contentsline {xpart}{Docker Swarm}{45}{part.4}
\contentsline {part}{V\hspace {1em}Docker Compose}{45}{part.5}
\contentsline {xpart}{Docker Compose}{47}{part.5}
\contentsline {part}{VI\hspace {1em}Commandline Reference}{47}{part.6}
\contentsline {chapter}{\numberline {18}attach}{49}{chapter.18}
\contentsline {xpart}{Commandline Reference}{49}{part.6}
\contentsline {chapter}{\numberline {19}build}{51}{chapter.19}
\contentsline {section}{\numberline {19.1}Resource Limitation}{51}{section.19.1}
\contentsline {chapter}{\numberline {20}commit}{53}{chapter.20}
\contentsline {chapter}{\numberline {21}cp}{55}{chapter.21}
\contentsline {chapter}{\numberline {22}create}{57}{chapter.22}
\contentsline {chapter}{\numberline {23}diff}{59}{chapter.23}
\contentsline {chapter}{\numberline {24}events}{61}{chapter.24}
